<?xml version="1.0" encoding="UTF-8" standalone="no"?>
<svg
   xmlns:dc="http://purl.org/dc/elements/1.1/"
   xmlns:cc="http://creativecommons.org/ns#"
   xmlns:rdf="http://www.w3.org/1999/02/22-rdf-syntax-ns#"
   xmlns:svg="http://www.w3.org/2000/svg"
   xmlns="http://www.w3.org/2000/svg"
   xmlns:sodipodi="http://sodipodi.sourceforge.net/DTD/sodipodi-0.dtd"
   xmlns:inkscape="http://www.inkscape.org/namespaces/inkscape"
   id="svg"
   version="1.1"
   viewBox="0 0 22 22"
   sodipodi:docname="device.svg"
   inkscape:version="0.92.3 (2405546, 2018-03-11)">
  <metadata
     id="metadata29">
    <rdf:RDF>
      <cc:Work
         rdf:about="">
        <dc:format>image/svg+xml</dc:format>
        <dc:type
           rdf:resource="http://purl.org/dc/dcmitype/StillImage" />
      </cc:Work>
    </rdf:RDF>
  </metadata>
  <sodipodi:namedview
     pagecolor="#ffffff"
     bordercolor="#666666"
     borderopacity="1"
     objecttolerance="10"
     gridtolerance="10"
     guidetolerance="10"
     inkscape:pageopacity="0"
     inkscape:pageshadow="2"
     inkscape:window-width="1920"
     inkscape:window-height="1010"
     id="namedview27"
     showgrid="true"
     inkscape:zoom="21.310474"
     inkscape:cx="2.2507186"
     inkscape:cy="14.741709"
     inkscape:window-x="0"
     inkscape:window-y="40"
     inkscape:window-maximized="1"
     inkscape:current-layer="svg">
    <inkscape:grid
       type="xygrid"
       id="grid836" />
  </sodipodi:namedview>
  <defs
     id="defs3">
    <inkscape:path-effect
       effect="skeletal"
       id="path-effect905"
       is_visible="true"
       pattern="M 0,5 C 0,2.24 2.24,0 5,0 7.76,0 10,2.24 10,5 10,7.76 7.76,10 5,10 2.24,10 0,7.76 0,5 Z"
       copytype="single_stretched"
       prop_scale="1"
       scale_y_rel="false"
       spacing="0"
       normal_offset="0"
       tang_offset="0"
       prop_units="false"
       vertical_pattern="false"
       fuse_tolerance="0" />
    <inkscape:path-effect
       effect="skeletal"
       id="path-effect849"
       is_visible="true"
       pattern="M 0,5 C 0,2.24 2.24,0 5,0 7.76,0 10,2.24 10,5 10,7.76 7.76,10 5,10 2.24,10 0,7.76 0,5 Z"
       copytype="single_stretched"
       prop_scale="1"
       scale_y_rel="false"
       spacing="0"
       normal_offset="0"
       tang_offset="0"
       prop_units="false"
       vertical_pattern="false"
       fuse_tolerance="0" />
    <style
       id="current-color-scheme"
       type="text/css">.ColorScheme-Text { color:#565656; } .ColorScheme-Highlight { color:#5294e2; } .ColorScheme-ButtonBackground { color:#565656; }</style>
  </defs>
  <g
     id="16-16-device-notifier">
    <rect
       class="ColorScheme-Text"
       y="26"
       width="16"
       height="16"
       fill-opacity="0"
       id="rect7" />
    <path
       class="ColorScheme-Text"
       d="m4.8438 27.007c-0.28125 0.04688-0.84375 0.24988-0.84375 0.9995v8.9955s0 0.9995 1 0.9995h6c1 0 1-0.9995 1-0.9995v-8.9955c0-0.9995-1-0.9995-1-0.9995h-6s-0.0625-0.01559-0.15625 0zm0.15625 11.994v1.999h6v-1.999z"
       enable-background="new"
       fill="currentColor"
       filter="url(#filter7554)"
       id="path9" />
  </g>
  <g
     id="device-notifier"
     transform="translate(40,4)">
    <rect
       class="ColorScheme-Text"
       x="-40"
       y="-38"
       width="32"
       height="32"
       fill-opacity="0"
       id="rect19" />
    <path
       class="ColorScheme-Text"
       d="m-29.523-34.987c-0.49219 0.08522-1.4766 0.45426-1.4766 1.817v16.353s0 1.817 1.75 1.817h10.5c1.75 0 1.75-1.817 1.75-1.817v-16.353c0-1.817-1.75-1.817-1.75-1.817h-10.5s-0.10938-0.02834-0.27344 0z"
       enable-background="new"
       fill="currentColor"
       filter="url(#filter7554)"
       id="path21" />
    <path
       class="ColorScheme-Text"
       d="m-29-13v4h10v-4z"
       enable-background="new"
       fill="currentColor"
       filter="url(#filter7554)"
       id="path23" />
  </g>
  <g
     id="22-22-device-notifier">
    <rect
       y="0"
       x="0"
       height="22"
       width="22"
       id="rect851"
       style="opacity:1;fill:#000000;fill-opacity:0;fill-rule:nonzero;stroke:none;stroke-width:2;stroke-miterlimit:4;stroke-dasharray:none;stroke-opacity:1;paint-order:fill markers stroke" />
    <rect
       rx="1.5"
       y="8"
       x="6"
       height="10"
       width="10"
       id="rect883"
       style="opacity:1;fill:#000000;fill-opacity:1;fill-rule:nonzero;stroke:none;stroke-width:2.00000024;stroke-miterlimit:4;stroke-dasharray:none;stroke-opacity:1;paint-order:fill markers stroke" />
    <rect
       rx="2"
       y="3"
       x="8"
       height="4"
       width="6"
       id="rect899"
       style="opacity:1;fill:#000000;fill-opacity:1;fill-rule:nonzero;stroke:none;stroke-width:2.30940104;stroke-miterlimit:4;stroke-dasharray:none;stroke-opacity:1;paint-order:fill markers stroke" />
    <rect
       y="5"
       x="8"
       height="2"
       width="6"
       id="rect909"
       style="opacity:1;fill:#000000;fill-opacity:1;fill-rule:nonzero;stroke:none;stroke-width:2.82842708;stroke-miterlimit:4;stroke-dasharray:none;stroke-opacity:1;paint-order:fill markers stroke" />
  </g>
</svg>
