<?xml version="1.0" encoding="UTF-8" standalone="no"?>
<svg
   xmlns:dc="http://purl.org/dc/elements/1.1/"
   xmlns:cc="http://creativecommons.org/ns#"
   xmlns:rdf="http://www.w3.org/1999/02/22-rdf-syntax-ns#"
   xmlns:svg="http://www.w3.org/2000/svg"
   xmlns="http://www.w3.org/2000/svg"
   xmlns:sodipodi="http://sodipodi.sourceforge.net/DTD/sodipodi-0.dtd"
   xmlns:inkscape="http://www.inkscape.org/namespaces/inkscape"
   width="22"
   height="22"
   version="1.1"
   viewBox="0 0 22 22"
   id="svg67"
   sodipodi:docname="media.svg"
   inkscape:version="0.92.3 (2405546, 2018-03-11)">
  <metadata
     id="metadata71">
    <rdf:RDF>
      <cc:Work
         rdf:about="">
        <dc:format>image/svg+xml</dc:format>
        <dc:type
           rdf:resource="http://purl.org/dc/dcmitype/StillImage" />
      </cc:Work>
    </rdf:RDF>
  </metadata>
  <sodipodi:namedview
     pagecolor="#ffffff"
     bordercolor="#666666"
     borderopacity="1"
     objecttolerance="10"
     gridtolerance="10"
     guidetolerance="10"
     inkscape:pageopacity="0"
     inkscape:pageshadow="2"
     inkscape:window-width="1920"
     inkscape:window-height="1006"
     id="namedview69"
     showgrid="false"
     inkscape:zoom="5.03"
     inkscape:cx="31.932406"
     inkscape:cy="12.978637"
     inkscape:window-x="0"
     inkscape:window-y="0"
     inkscape:window-maximized="1"
     inkscape:current-layer="svg67" />
  <defs
     id="defs3">
    <style
       id="current-color-scheme"
       type="text/css">.ColorScheme-Text { color:#dedede; } .ColorScheme-Highlight { color:#5294e2; } .ColorScheme-ButtonBackground { color:#dedede; }</style>
  </defs>
  <g
     transform="translate(22,-1030.4)"
     id="media-record">
    <rect
       style="opacity:0.00100002"
       x="0"
       id="rect5"
       height="22"
       width="22"
       y="1030.4" />
    <path
       style="color:#5294e2;fill:#f96060;enable-background:new"
       inkscape:connector-curvature="0"
       id="path7"
       d="m 11,1035.4 c -3.311,0 -6,2.6888 -6,6 0,3.311 2.689,6 6,6 3.311,0 6,-2.689 6,-6 0,-3.3112 -2.689,-6 -6,-6 z"
       class="ColorScheme-Highlight" />
  </g>
  <g
     id="media-playback-stop"
     inkscape:label="#media-playback-stop">
    <rect
       style="opacity:0.00100002"
       x="44"
       id="rect10"
       height="22"
       width="22"
       y="2.4414063e-05" />
    <path
       style="color:#dedede;fill:#000000;enable-background:new;fill-opacity:1"
       inkscape:connector-curvature="0"
       id="path12"
       d="m 49.2637,4.7 v 12 h 12 v -12 z"
       class="ColorScheme-Text" />
  </g>
  <g
     id="media-skip-forward">
    <rect
       style="opacity:0.00100002"
       x="66"
       id="rect15"
       height="22"
       width="22"
       y="2.4414063e-05" />
    <path
       style="color:#dedede;fill:#000000;enable-background:new;fill-opacity:1"
       inkscape:connector-curvature="0"
       id="path17"
       d="m 85.264,6.7 v 8 h -2 v -8 z m -2,4 -7,4 v -8 z m -7,0 -7,4 v -8 z"
       class="ColorScheme-Text" />
  </g>
  <g
     id="media-skip-backward"
     inkscape:label="#media-skip-backward">
    <rect
       transform="scale(-1,1)"
       style="opacity:0.00100002"
       x="-110"
       id="rect20"
       height="22"
       width="22"
       y="2.4414063e-05" />
    <path
       style="color:#dedede;fill:#000000;enable-background:new;fill-opacity:1"
       inkscape:connector-curvature="0"
       id="path22"
       d="m 91.264,6.7 v 8 h 2 v -8 z m 2,4 7,4 v -8 z m 7,0 7,4 v -8 z"
       class="ColorScheme-Text" />
  </g>
  <g
     id="media-seek-forward"
     inkscape:label="#media-seek-forward">
    <rect
       style="opacity:0.00100002"
       x="110"
       id="rect25"
       height="22"
       width="22"
       y="2.4414063e-05" />
    <path
       style="color:#dedede;fill:#000000;enable-background:new;fill-opacity:1"
       inkscape:connector-curvature="0"
       id="path27"
       d="m 121.264,6.7 7,4 -7,4 z m 0,4 -7,4 v -8 z"
       class="ColorScheme-Text" />
  </g>
  <g
     id="media-seek-backward"
     inkscape:label="#media-seek-backward">
    <rect
       transform="scale(-1,1)"
       style="opacity:0.00100002"
       x="-154"
       id="rect30"
       height="22"
       width="22"
       y="2.4414063e-05" />
    <path
       style="color:#dedede;fill:#000000;enable-background:new;fill-opacity:1"
       inkscape:connector-curvature="0"
       id="path32"
       d="m 143.264,6.7 -7,4 7,4 z m 0,4 7,4 v -8 z"
       class="ColorScheme-Text" />
  </g>
  <g
     id="media-eject">
    <rect
       style="opacity:0.00100002"
       x="-44"
       id="rect35"
       height="22"
       width="22"
       y="2.4414063e-05" />
    <path
       style="color:#dedede;display:block;fill:#000000;fill-opacity:1"
       inkscape:connector-curvature="0"
       id="path37"
       display="block"
       d="m -32.736,5.7 -5,5 v 1 h 10 v -1 z m -5,8 v 2 h 10 v -2 z"
       class="ColorScheme-Text" />
  </g>
  <g
     id="media-playback-pause"
     inkscape:label="#media-playback-pause">
    <rect
       style="opacity:0.00100002"
       x="-22"
       id="rect40"
       height="22"
       width="22"
       y="2.4414063e-05" />
    <path
       style="color:#dedede;fill:#000000;enable-background:new;fill-opacity:1"
       inkscape:connector-curvature="0"
       id="path42"
       d="m -16.7363,4.7 v 12 h 4 v -12 z m 8,0 v 12 h 4 v -12 z"
       class="ColorScheme-Text" />
  </g>
  <g
     id="media-playback-start"
     inkscape:label="#media-playback-start">
    <rect
       style="opacity:0.00100002"
       x="0"
       id="rect45"
       height="22"
       width="22"
       y="2.4414063e-05" />
    <path
       style="color:#dedede;fill:#000000;enable-background:new;fill-opacity:1"
       inkscape:connector-curvature="0"
       id="path47"
       d="m 6.2637,4.7 v 12 l 11,-6 -9.8992,-5.3996 z"
       class="ColorScheme-Text" />
  </g>
  <g
     id="media-playback-paused"
     inkscape:label="#media-playback-paused">
    <rect
       style="color:#dedede;opacity:0.01000001;fill:#ed1515;fill-opacity:0.00392163;stroke-width:1.5"
       id="rect50"
       height="22.0005"
       width="22.0005"
       y="28.4"
       x="0.85884982" />
    <path
       style="color:#dedede;fill:#000000;stroke-width:1.5;fill-opacity:1"
       inkscape:connector-curvature="0"
       id="path52"
       d="m 13.1233,36.2 h 2.0001 v 6.0003 h -2.0001 z m -4.0002,0 h 2.0001 v 6.0003 H 9.1231 Z m 3.00015,-5.0001 c -4.4322,0 -8.00025,3.56805 -8.00025,8.00025 0,4.4322 3.5682,8.00025 8.00025,8.00025 4.4322,0 8.00025,-3.56805 8.00025,-8.00025 0,-4.4322 -3.5682,-8.00025 -8.00025,-8.00025 z"
       class="ColorScheme-Text" />
  </g>
  <g
     id="media-playback-playing"
     inkscape:label="#media-playback-playing">
    <rect
       style="color:#dedede;opacity:0.01000001;fill:#ed1515;fill-opacity:0.00392163;stroke-width:1.5"
       id="rect55"
       height="22.0005"
       width="22.0005"
       y="28.4"
       x="24.8585" />
    <path
       style="color:#31363b;fill:#000000;stroke-width:1.00002003;fill-opacity:1"
       inkscape:connector-curvature="0"
       id="path57"
       d="m 36.1205,31.25 c -4.4325,0 -8.0001,3.56775 -8.0001,8.0001 0,4.4325 3.5676,8.00025 8.0001,8.00025 4.4325,0 8.0022,-3.56775 8.0022,-8.00025 0,-4.43235 -3.5697,-8.0001 -8.0022,-8.0001 z m -2.0001,5.0001 4.00005,3 -4.00005,3.00015 z" />
  </g>
  <g
     id="media-playback-stopped"
     inkscape:label="#media-playback-stopped">
    <rect
       style="color:#dedede;opacity:0.01000001;fill:#ed1515;fill-opacity:0.00392163;stroke-width:1.5"
       id="rect60"
       height="22.0005"
       width="22.0005"
       y="28.4"
       x="48.858952" />
    <path
       style="color:#dedede;fill:#000000;stroke-width:1.5;fill-opacity:1"
       inkscape:connector-curvature="0"
       id="path62"
       d="m 57.12155,36.2 h 6.0003 v 6.0003 h -6.0003 z m 3.00015,-5.0001 c -4.4322,0 -8.00025,3.56805 -8.00025,8.00025 0,4.4322 3.5682,8.00025 8.00025,8.00025 4.4322,0 8.00025,-3.56805 8.00025,-8.00025 0,-4.4322 -3.5682,-8.00025 -8.00025,-8.00025 z"
       class="ColorScheme-Text" />
  </g>
</svg>
