<?xml version="1.0" encoding="UTF-8" standalone="no"?>
<svg
   xmlns:osb="http://www.openswatchbook.org/uri/2009/osb"
   xmlns:dc="http://purl.org/dc/elements/1.1/"
   xmlns:cc="http://creativecommons.org/ns#"
   xmlns:rdf="http://www.w3.org/1999/02/22-rdf-syntax-ns#"
   xmlns:svg="http://www.w3.org/2000/svg"
   xmlns="http://www.w3.org/2000/svg"
   xmlns:sodipodi="http://sodipodi.sourceforge.net/DTD/sodipodi-0.dtd"
   xmlns:inkscape="http://www.inkscape.org/namespaces/inkscape"
   id="svg7384"
   width="22"
   height="22"
   version="1.1"
   style="enable-background:new"
   sodipodi:docname="nepomuk.svg"
   inkscape:version="0.92.3 (2405546, 2018-03-11)">
  <metadata
     id="metadata12">
    <rdf:RDF>
      <cc:Work
         rdf:about="">
        <dc:format>image/svg+xml</dc:format>
        <dc:type
           rdf:resource="http://purl.org/dc/dcmitype/StillImage" />
      </cc:Work>
    </rdf:RDF>
  </metadata>
  <sodipodi:namedview
     pagecolor="#ffffff"
     bordercolor="#666666"
     borderopacity="1"
     objecttolerance="10"
     gridtolerance="10"
     guidetolerance="10"
     inkscape:pageopacity="0"
     inkscape:pageshadow="2"
     inkscape:window-width="1920"
     inkscape:window-height="1006"
     id="namedview10"
     showgrid="false"
     inkscape:zoom="5.2693537"
     inkscape:cx="-22.619369"
     inkscape:cy="1.755949"
     inkscape:window-x="0"
     inkscape:window-y="0"
     inkscape:window-maximized="1"
     inkscape:current-layer="svg7384" />
  <defs
     id="defs7386">
    <style
       id="current-color-scheme"
       type="text/css">
   .ColorScheme-Text { color:#565656; } .ColorScheme-Highlight { color:#5294e2; } .ColorScheme-ButtonBackground { color:#565656; }
  </style>
    <linearGradient
       id="linearGradient5606"
       osb:paint="solid">
      <stop
         id="stop5608"
         offset="0"
         style="stop-color:currentColor;stop-opacity:1" />
    </linearGradient>
  </defs>
  <g
     id="nepomuk"
     inkscape:label="#nepomuk">
    <rect
       id="rect4150"
       width="22"
       height="22"
       x="0"
       y="0"
       style="opacity:0;fill:currentColor;fill-opacity:1;stroke:none;stroke-opacity:1" />
    <path
       id="path27918-2"
       d="m 9.48934,3.99716 c 3.02885,0 5.53125,2.47458 5.53125,5.5 0,1.14986 -0.38921,2.20784 -1,3.09375 l 3.80833,3.8087 -1.40625,1.4375 -3.80833,-3.8087 c -0.88729,0.61091 -1.973,0.96875 -3.125,0.96875 -3.02886,0 -5.5,-2.47459 -5.5,-5.5 0,-3.02542 2.47114,-5.5 5.5,-5.5 z m 0,2 c -1.94736,0 -3.5,1.55485 -3.5,3.5 0,1.94514 1.55264,3.5 3.5,3.5 1.94735,0 3.5,-1.55486 3.5,-3.5 0,-1.94515 -1.55265,-3.5 -3.5,-3.5 z"
       style="color:#000000;font-style:normal;font-variant:normal;font-weight:normal;font-stretch:normal;font-size:medium;line-height:normal;font-family:Sans;-inkscape-font-specification:Sans;text-indent:0;text-align:start;text-decoration:none;text-decoration-line:none;letter-spacing:normal;word-spacing:normal;text-transform:none;writing-mode:lr-tb;direction:ltr;baseline-shift:baseline;text-anchor:start;display:inline;overflow:visible;visibility:visible;fill:#000000;fill-opacity:1;stroke:none;stroke-width:1.55467153;marker:none;enable-background:new"
       inkscape:connector-curvature="0"
       sodipodi:nodetypes="ssccccssssssss" />
    <rect
       transform="scale(-1,1)"
       style="color:#bebebe;display:inline;overflow:visible;visibility:visible;fill:none;stroke:none;stroke-width:1;marker:none;enable-background:new"
       id="rect9053"
       y="3"
       x="-18.999996"
       height="16"
       width="16" />
  </g>
</svg>
