<?xml version="1.0" encoding="UTF-8" standalone="no"?>
<svg
   xmlns:dc="http://purl.org/dc/elements/1.1/"
   xmlns:cc="http://creativecommons.org/ns#"
   xmlns:rdf="http://www.w3.org/1999/02/22-rdf-syntax-ns#"
   xmlns:svg="http://www.w3.org/2000/svg"
   xmlns="http://www.w3.org/2000/svg"
   xmlns:sodipodi="http://sodipodi.sourceforge.net/DTD/sodipodi-0.dtd"
   xmlns:inkscape="http://www.inkscape.org/namespaces/inkscape"
   id="svg"
   width="100%"
   height="100%"
   version="1.1"
   viewBox="0 0 22 22"
   sodipodi:docname="preferences.svg"
   inkscape:version="0.92.3 (2405546, 2018-03-11)">
  <metadata
     id="metadata23">
    <rdf:RDF>
      <cc:Work
         rdf:about="">
        <dc:format>image/svg+xml</dc:format>
        <dc:type
           rdf:resource="http://purl.org/dc/dcmitype/StillImage" />
      </cc:Work>
    </rdf:RDF>
  </metadata>
  <sodipodi:namedview
     pagecolor="#ffffff"
     bordercolor="#666666"
     borderopacity="1"
     objecttolerance="10"
     gridtolerance="10"
     guidetolerance="10"
     inkscape:pageopacity="0"
     inkscape:pageshadow="2"
     inkscape:window-width="1920"
     inkscape:window-height="1006"
     id="namedview21"
     showgrid="false"
     inkscape:zoom="5.3636364"
     inkscape:cx="57.706173"
     inkscape:cy="12.722928"
     inkscape:window-x="0"
     inkscape:window-y="0"
     inkscape:window-maximized="1"
     inkscape:current-layer="svg" />
  <defs
     id="defs7386">
    <style
       id="current-color-scheme"
       type="text/css">
   .ColorScheme-Text { color:#565656; } .ColorScheme-Highlight { color:#5294e2; } .ColorScheme-ButtonBackground { color:#565656; }
  </style>
  </defs>
  <g
     id="preferences-desktop-notification"
     transform="translate(22,-39.787798)">
    <rect
       id="rect3068"
       width="22"
       height="22"
       x="0"
       y="40"
       style="opacity:0;fill:#000000;fill-opacity:0.94117647;stroke:none" />
    <path
       id="path4238"
       class="ColorScheme-Highlight"
       d="m 11,43 c -4.418278,0 -8,3.581722 -8,8 0,4.418278 3.581722,8 8,8 4.418278,0 8,-3.581722 8,-8 0,-4.418278 -3.581722,-8 -8,-8 z"
       style="opacity:1;fill:currentColor;fill-opacity:1;fill-rule:nonzero;stroke:none;stroke-width:1;stroke-linecap:round;stroke-linejoin:round;stroke-miterlimit:4;stroke-dasharray:none;stroke-dashoffset:0;stroke-opacity:1" />
    <path
       id="path4173-0"
       class="ColorScheme-Text"
       d="m 10,47 0,6 2,0 0,-6 -2,0 z m 1,7 c -0.453152,0 -1,0.518427 -1,0.980469 C 10,55.442512 10.546848,56 11,56 11.453152,56 12,55.442512 12,54.980469 12,54.518427 11.453152,54 11,54 Z"
       style="opacity:1;fill:#ffffff;fill-opacity:1;stroke:none" />
  </g>
  <g
     id="preferences-system-bluetooth-activated"
     inkscape:label="#preferences-system-bluetooth-activated">
    <rect
       id="rect3969-75"
       width="22"
       height="22"
       x="44"
       y="0"
       style="opacity:0;fill:#000000;fill-opacity:1;stroke:none" />
    <path
       id="rect5886-2"
       class="ColorScheme-Text"
       d="M 55.5,3 C 52.453,3 50,5.676 50,9 v 4 c 0,3.324 2.453,6 5.5,6 3.047,0 5.5,-2.676 5.5,-6 V 9 C 61,5.676 58.547,3 55.5,3 Z M 63,3 a 2,2 0 0 0 -2,2 2,2 0 0 0 2,2 2,2 0 0 0 2,-2 2,2 0 0 0 -2,-2 z m -8,2 h 0.5 c 0.20775,0 0.39305,0.13292 0.46875,0.3125 l 2.875,2.84375 L 59.25,8.53125 58.8125,8.875 56.25,11 l 2.5625,2.125 0.4375,0.34375 -0.40625,0.375 -2.875,2.84375 c -0.0252,0.0599 -0.0798,0.11106 -0.125,0.15625 C 55.75335,16.93415 55.6385,17 55.5,17 H 55 v -0.5 -4.4375 l -2.15625,1.78125 C 52.75325,13.93425 52.63807,14 52.5,14 H 52 v -0.5 c 0,-0.15322 0.079,-0.28328 0.1875,-0.375 L 54.75,11 52.3125,8.96875 C 52.2658,8.94905 52.2257,8.9072 52.1875,8.875 52.07896,8.7833 52,8.65322 52,8.5 V 8 h 0.5 c 0.12292,0 0.22543,0.0514 0.3125,0.125 0.0107,0.009 0.02135,0.0213 0.03125,0.0312 L 55,9.9375 V 5.5 Z m 1,1.6875 v 3.25 l 1.78125,-1.46875 z m 0,5.375 v 3.25 l 1.78125,-1.78125 z"
       style="color:#565656;opacity:1;fill:#000000;fill-opacity:1;stroke:none"
       inkscape:connector-curvature="0" />
  </g>
  <g
     id="preferences-system-bluetooth"
     inkscape:label="#preferences-system-bluetooth">
    <rect
       id="rect4174"
       width="22"
       height="22"
       x="66"
       y="-3.9000001e-06"
       style="opacity:0;fill:#000000;fill-opacity:1;stroke:none" />
    <path
       id="path4176"
       class="ColorScheme-Text"
       d="m 77.5,2.9999961 c -3.047,0 -5.5,2.676 -5.5,6 v 3.9999999 c 0,3.324 2.453,6 5.5,6 3.047,0 5.5,-2.676 5.5,-6 V 8.9999961 c 0,-3.324 -2.453,-6 -5.5,-6 z m -0.5,2 h 0.5 c 0.20775,0 0.39305,0.13292 0.46875,0.3125 l 2.875,2.84375 0.40625,0.375 -0.4375,0.34375 -2.5625,2.1249999 2.5625,2.125 0.4375,0.34375 -0.40625,0.375 -2.875,2.84375 c -0.0252,0.0599 -0.0798,0.11106 -0.125,0.15625 -0.0904,0.0904 -0.20525,0.15625 -0.34375,0.15625 H 77 v -0.5 -4.4375 l -2.15625,1.78125 c -0.0905,0.0905 -0.20568,0.15625 -0.34375,0.15625 H 74 v -0.5 c 0,-0.15322 0.079,-0.28328 0.1875,-0.375 l 2.5625,-2.125 -2.4375,-2.0312499 c -0.0467,-0.0197 -0.0868,-0.0615 -0.125,-0.0937 C 74.07896,8.7833461 74,8.6532661 74,8.5000461 v -0.5 h 0.5 c 0.12292,0 0.22543,0.0514 0.3125,0.125 0.0107,0.009 0.0213,0.0213 0.0312,0.0312 l 2.15625,1.78125 v -4.4375 -0.5 z m 1,1.6875 v 3.25 l 1.78125,-1.46875 z m 0,5.3749999 v 3.25 l 1.78125,-1.78125 z"
       style="color:#565656;opacity:1;fill:#000000;fill-opacity:1;stroke:none"
       inkscape:connector-curvature="0" />
  </g>
  <g
     id="preferences-system-bluetooth-inactive"
     inkscape:label="#preferences-system-bluetooth-inactive">
    <rect
       id="rect4180"
       width="22"
       height="22"
       x="88"
       y="-3.9000001e-06"
       style="opacity:0;fill:#000000;fill-opacity:1;stroke:none" />
    <path
       id="path4182"
       class="ColorScheme-Text"
       d="m 99.5,2.9999961 c -3.047,0 -5.5,2.676 -5.5,6 v 3.9999999 c 0,3.324 2.453,6 5.5,6 3.047,0 5.5,-2.676 5.5,-6 V 8.9999961 c 0,-3.324 -2.453,-6 -5.5,-6 z m -0.5,2 h 0.5 c 0.20775,0 0.39305,0.13292 0.46875,0.3125 l 2.875,2.84375 0.40625,0.375 -0.4375,0.34375 -2.5625,2.1249999 2.5625,2.125 0.4375,0.34375 -0.40625,0.375 -2.875,2.84375 c -0.0252,0.0599 -0.0798,0.11106 -0.125,0.15625 -0.0904,0.0904 -0.20525,0.15625 -0.34375,0.15625 H 99 v -0.5 -4.4375 l -2.15625,1.78125 c -0.0905,0.0905 -0.20568,0.15625 -0.34375,0.15625 H 96 v -0.5 c 0,-0.15322 0.079,-0.28328 0.1875,-0.375 l 2.5625,-2.125 -2.4375,-2.0312499 c -0.0467,-0.0197 -0.0868,-0.0615 -0.125,-0.0937 C 96.07896,8.7833461 96,8.6532661 96,8.5000461 v -0.5 h 0.5 c 0.12292,0 0.22543,0.0514 0.3125,0.125 0.0107,0.009 0.0213,0.0213 0.0312,0.0312 l 2.15625,1.78125 v -4.4375 -0.5 z m 1,1.6875 v 3.25 l 1.78125,-1.46875 z m 0,5.3749999 v 3.25 l 1.78125,-1.78125 z"
       style="color:#565656;opacity:0.3;fill:#000000;fill-opacity:1;stroke:none"
       inkscape:connector-curvature="0" />
  </g>
  <g
     id="preferences-desktop-display-randr"
     inkscape:label="#preferences-desktop-display-randr">
    <rect
       transform="scale(-1,1)"
       style="color:#bebebe;display:inline;overflow:visible;visibility:visible;opacity:0;fill:#b3b3b3;stroke:none;stroke-width:2;marker:none;enable-background:accumulate"
       id="rect861"
       width="21.999994"
       height="21.999994"
       x="-21.999998"
       y="3.0000001e-06" />
    <path
       sodipodi:nodetypes="sccscccsscccccccccccc"
       inkscape:connector-curvature="0"
       id="path865"
       d="m 19.750008,2.000003 c 1.249998,0 1.249998,1.286021 1.249998,1.286021 v 12.427958 c 0,0 0,1.286021 -1.249998,1.286021 H 2.250002 c 0,0 -1.249999,0 -1.249999,-1.286021 V 3.286024 c 0,0 0,-1.286021 1.249999,-1.286021 z m -0.750005,2 h -16 v 11 h 16 z M 14.75,18.421672 14.749753,20.000003 H 7.249748 l 2.612e-4,-1.578331 c 0,-1.286022 1.2499985,-1.421669 1.2499985,-1.421669 h 5.0272053 c 0,0 1.222787,0.135647 1.222787,1.421669 z"
       style="fill:#000000;fill-opacity:1;stroke:none;stroke-width:1" />
  </g>
</svg>
