<?xml version="1.0" encoding="UTF-8" standalone="no"?>
<svg
   xmlns:dc="http://purl.org/dc/elements/1.1/"
   xmlns:cc="http://creativecommons.org/ns#"
   xmlns:rdf="http://www.w3.org/1999/02/22-rdf-syntax-ns#"
   xmlns:svg="http://www.w3.org/2000/svg"
   xmlns="http://www.w3.org/2000/svg"
   xmlns:sodipodi="http://sodipodi.sourceforge.net/DTD/sodipodi-0.dtd"
   xmlns:inkscape="http://www.inkscape.org/namespaces/inkscape"
   width="22"
   height="22"
   version="1"
   viewBox="0 0 22 22"
   id="svg331"
   sodipodi:docname="battery.svg"
   inkscape:version="0.92.3 (2405546, 2018-03-11)">
  <metadata
     id="metadata335">
    <rdf:RDF>
      <cc:Work
         rdf:about="">
        <dc:format>image/svg+xml</dc:format>
        <dc:type
           rdf:resource="http://purl.org/dc/dcmitype/StillImage" />
      </cc:Work>
    </rdf:RDF>
  </metadata>
  <sodipodi:namedview
     pagecolor="#ffffff"
     bordercolor="#666666"
     borderopacity="1"
     objecttolerance="10"
     gridtolerance="10"
     guidetolerance="10"
     inkscape:pageopacity="0"
     inkscape:pageshadow="2"
     inkscape:window-width="1920"
     inkscape:window-height="1006"
     id="namedview333"
     showgrid="false"
     inkscape:zoom="2.52"
     inkscape:cx="118.18265"
     inkscape:cy="-79.992121"
     inkscape:window-x="0"
     inkscape:window-y="0"
     inkscape:window-maximized="1"
     inkscape:current-layer="svg331" />
  <defs
     id="defs3">
    <style
       id="current-color-scheme"
       type="text/css">.ColorScheme-Text { color:#565656; } .ColorScheme-Highlight { color:#5294e2; } .ColorScheme-ButtonBackground { color:#5c616c; }</style>
  </defs>
  <g
     id="22-22-Battery"
     inkscape:label="#22-22-Battery">
    <rect
       width="22"
       height="22"
       style="opacity:0;stroke-width:2;paint-order:fill markers stroke"
       id="rect15"
       x="0"
       y="0" />
    <rect
       style="color:#dddddd;fill:none"
       id="rect17"
       height="16"
       width="16"
       y="-19"
       x="3"
       transform="rotate(90)" />
    <path
       style="opacity:0.5;fill:#000000;fill-opacity:1"
       inkscape:connector-curvature="0"
       id="path19"
       d="M 9,4 V 5 H 6 v 1 11 c 0,0.554 0.446,1 1,1 h 8 c 0.554,0 1,-0.446 1,-1 V 6 5 H 13 V 4 Z" />
  </g>
  <g
     id="22-22-battery-ups"
     transform="translate(25,30)">
    <rect
       x="35"
       width="22"
       height="22"
       opacity="0"
       stroke-width="2"
       style="paint-order:fill markers stroke"
       id="rect24" />
    <g
       transform="translate(-227 394)"
       enable-background="new"
       id="g30">
      <rect
         transform="rotate(90)"
         x="-391"
         y="-281"
         width="16"
         height="16"
         color="#dddddd"
         fill="none"
         id="rect26" />
      <path
         transform="translate(121 -473)"
         d="m150 83v1h-3v1 11c0 0.554 0.446 1 1 1h8c0.554 0 1-0.446 1-1v-11-1h-3v-1zm2 4v3h3l-3 5v-3h-3z"
         fill="#4caf50"
         id="path28" />
    </g>
  </g>
  <g
     id="g41"
     inkscape:label="#g41">
    <rect
       x="245"
       y="0"
       width="22"
       height="22"
       style="opacity:0;stroke-width:2;paint-order:fill markers stroke"
       id="rect33" />
    <rect
       style="color:#dddddd;fill:none"
       id="rect35"
       height="16"
       width="16"
       y="248"
       x="3"
       transform="matrix(0,1,1,0,0,0)" />
    <path
       style="fill:#000000;fill-opacity:1"
       inkscape:connector-curvature="0"
       id="path37"
       d="m 261,14 -3e-5,3 c -1e-5,0.554 -0.446,1 -1,1 h -8 c -0.554,0 -1,-0.446 -1,-1 v -2 z"
       class="error" />
  </g>
  <g
     id="g51"
     inkscape:label="#g51">
    <rect
       x="183"
       y="0"
       width="22"
       height="22"
       style="opacity:0;stroke-width:2;paint-order:fill markers stroke"
       id="rect43" />
    <rect
       style="color:#dddddd;fill:none"
       id="rect45"
       height="16"
       width="16"
       y="186"
       x="3"
       transform="matrix(0,1,1,0,0,0)" />
    <path
       style="fill:#000000;fill-opacity:1"
       inkscape:connector-curvature="0"
       id="path47"
       d="m 199,12 -3e-5,5 c 0,0.554 -0.446,1 -1,1 h -8 c -0.554,0 -1,-0.446 -1,-1 v -4 z" />
  </g>
  <g
     id="g61">
    <rect
       x="90"
       width="22"
       height="22"
       style="opacity:0;stroke-width:2;paint-order:fill markers stroke"
       id="rect53"
       y="0" />
    <rect
       style="color:#dddddd;fill:none"
       id="rect55"
       height="16"
       width="16"
       y="-109"
       x="3"
       transform="rotate(90)" />
    <path
       style="fill:#000000;fill-opacity:1"
       inkscape:connector-curvature="0"
       id="path57"
       d="m 96,9 v 8 c 0,0.554 0.446,1 1,1 h 8 c 0.554,0 1,-0.446 1,-1 V 9 Z" />
  </g>
  <g
     id="g71"
     inkscape:label="#g71">
    <rect
       x="121"
       width="22"
       height="22"
       style="opacity:0;stroke-width:2;paint-order:fill markers stroke"
       id="rect63"
       y="0" />
    <rect
       style="color:#dddddd;fill:none"
       id="rect65"
       height="16"
       width="16"
       y="-140"
       x="3"
       transform="rotate(90)" />
    <path
       style="fill:#000000;fill-opacity:1"
       inkscape:connector-curvature="0"
       id="path67"
       d="m 127,11 v 6 c 0,0.554 0.446,1 1,1 h 8 c 0.554,0 1,-0.446 1,-1 v -7 z" />
  </g>
  <g
     id="g81"
     inkscape:label="#g81">
    <rect
       x="28"
       width="22"
       height="22"
       style="opacity:0;stroke-width:2;paint-order:fill markers stroke"
       id="rect73"
       y="0" />
    <rect
       style="color:#dddddd;fill:none"
       id="rect75"
       height="16"
       width="16"
       y="-47"
       x="3"
       transform="rotate(90)" />
    <path
       style="fill:#000000;fill-opacity:1"
       inkscape:connector-curvature="0"
       id="path77"
       d="m 37,4 v 1 h -3 v 1 11 c 0,0.554 0.446,1 1,1 h 8 c 0.554,0 1,-0.446 1,-1 V 6 5 H 41 V 4 Z" />
  </g>
  <g
     id="g91"
     inkscape:label="#g91">
    <rect
       x="59"
       width="22"
       height="22"
       style="opacity:0;stroke-width:2;paint-order:fill markers stroke"
       id="rect83"
       y="0" />
    <rect
       style="color:#dddddd;fill:none"
       id="rect85"
       height="16"
       width="16"
       y="-78"
       x="3"
       transform="rotate(90)" />
    <path
       style="fill:#000000;fill-opacity:1"
       inkscape:connector-curvature="0"
       id="path87"
       d="m 65,9 v 8 c 0,0.554 0.446,1 1,1 h 8 c 0.554,0 1,-0.446 1,-1 V 8 Z" />
  </g>
  <g
     id="g101"
     inkscape:label="#g101">
    <rect
       x="152"
       y="0"
       width="22"
       height="22"
       style="opacity:0;stroke-width:2;paint-order:fill markers stroke"
       id="rect93" />
    <rect
       style="color:#dddddd;fill:none"
       id="rect95"
       height="16"
       width="16"
       y="-171"
       x="3"
       transform="rotate(90)" />
    <path
       style="fill:#000000;fill-opacity:1"
       inkscape:connector-curvature="0"
       id="path97"
       d="m 158,11 v 6 c 0,0.554 0.446,1 1,1 h 8 c 0.554,0 1,-0.446 1,-1 v -6 z" />
  </g>
  <g
     id="g111"
     inkscape:label="#g111">
    <rect
       x="214"
       y="0"
       width="22"
       height="22"
       style="opacity:0;stroke-width:2;paint-order:fill markers stroke"
       id="rect103" />
    <rect
       style="color:#dddddd;fill:none"
       id="rect105"
       height="16"
       width="16"
       y="217"
       x="3"
       transform="matrix(0,1,1,0,0,0)" />
    <path
       style="fill:#000000;fill-opacity:1"
       inkscape:connector-curvature="0"
       id="path107"
       d="m 230,13 v 4 c 0,0.554 -0.446,1 -1,1 h -8 c -0.554,0 -1,-0.446 -1,-1 v -4 z" />
  </g>
  <g
     transform="translate(-36,-2)"
     id="g121">
    <rect
       x="313"
       y="2"
       width="22"
       height="22"
       opacity="0"
       stroke-width="2"
       style="paint-order:fill markers stroke"
       id="rect113" />
    <g
       transform="matrix(-1 0 0 1 597 396)"
       enable-background="new"
       id="g119">
      <rect
         transform="rotate(90)"
         x="-391"
         y="-281"
         width="16"
         height="16"
         color="#dddddd"
         fill="none"
         id="rect115" />
      <path
         class="error"
         transform="translate(221 -473)"
         d="m47 94v2c0 0.554 0.446 1 1 1h8c0.554 0 1-0.446 1-1v-2z"
         fill="#f44336"
         id="path117" />
    </g>
  </g>
  <g
     transform="translate(-35 -2)"
     id="g131">
    <rect
       x="343"
       y="2"
       width="22"
       height="22"
       opacity="0"
       stroke-width="2"
       style="paint-order:fill markers stroke"
       id="rect123" />
    <g
       transform="matrix(-1 0 0 1 627 396)"
       enable-background="new"
       id="g129">
      <rect
         transform="rotate(90)"
         x="-391"
         y="-281"
         width="16"
         height="16"
         color="#dddddd"
         fill="none"
         id="rect125" />
      <path
         class="error"
         transform="translate(221 -473)"
         d="m47 94v2c0 0.554 0.446 1 1 1h8c0.554 0 1-0.446 1-1l-3e-5 -1z"
         fill="#f44336"
         id="path127" />
    </g>
  </g>
  <rect
     id="rect133"
     style="opacity:0;stroke-width:2;paint-order:fill markers stroke"
     height="22"
     width="22"
     y="0"
     x="339" />
  <g
     style="enable-background:new"
     id="g139"
     transform="translate(77,394)">
    <rect
       style="color:#dddddd;fill:none"
       id="rect135"
       height="16"
       width="16"
       y="-281"
       x="-391"
       transform="rotate(90)" />
    <path
       style="opacity:0.5;fill:#f44336"
       inkscape:connector-curvature="0"
       id="path137"
       d="m 348,4 v 1 h -3 v 12 c 0,0.554 0.446,1 1,1 h 8 c 0.554,0 1,-0.446 1,-1 V 5 h -3 V 4 Z"
       transform="translate(-77,-394)" />
  </g>
  <g
     id="22-22-AcAdapter"
     inkscape:label="#22-22-AcAdapter">
    <rect
       width="22"
       height="22"
       style="opacity:0;stroke-width:2;paint-order:fill markers stroke"
       id="rect5"
       x="0"
       y="30" />
    <rect
       style="color:#dddddd;fill:none"
       id="rect7"
       height="16"
       width="16"
       y="-19"
       x="33"
       transform="rotate(90)" />
    <path
       inkscape:connector-curvature="0"
       style="fill:#000000;fill-opacity:1"
       id="path9"
       d="m 9,34 v 1 H 6 v 1 11 c 0,0.554 0.446,1 1,1 h 8 c 0.554,0 1,-0.446 1,-1 V 36 35 h -3 v -1 z" />
    <path
       d="m -0.004,51.996 v -22 h 22 v 22 z"
       id="path143"
       inkscape:connector-curvature="0"
       style="fill:none;stroke-width:0.1;stroke-linecap:square" />
    <path
       d="m 7.996,39.996 a 3,3 0 0 0 2,2.826 v 1.174 h 2 V 42.82 a 3,3 0 0 0 2,-2.824 h -1 v -2 h -1 v 2 h -2 v -2 h -1 v 2 z"
       id="path145"
       style="fill:#ffffff;stroke-width:0.1;stroke-linecap:square"
       inkscape:connector-curvature="0" />
  </g>
  <rect
     y="30"
     x="30"
     id="rect148"
     style="opacity:0;stroke-width:2;paint-order:fill markers stroke"
     height="22"
     width="22" />
  <g
     id="g154"
     inkscape:label="#g154">
    <rect
       style="color:#dddddd;fill:none"
       id="rect150"
       height="16"
       width="16"
       y="-49"
       x="33"
       transform="rotate(90)" />
    <path
       style="fill:#000000;fill-opacity:1"
       inkscape:connector-curvature="0"
       id="path152"
       d="m 39,34 v 1 h -3 v 1 11 c 0,0.554 0.446,1 1,1 h 8 c 0.554,0 1,-0.446 1,-1 V 36 35 h -3 v -1 z" />
  </g>
  <g
     id="22-22-Unavailable"
     transform="translate(-228.54 -396.5)">
    <path
       d="m258.54 426.5h22v22h-22z"
       fill="none"
       id="path158" />
    <g
       id="g164">
      <rect
         x="270.54"
         y="438.5"
         width="8"
         height="8"
         rx="4"
         ry="4"
         fill="#f44336"
         id="rect160" />
      <path
         class="ColorScheme-Background"
         d="m276.66 441.09-0.70699-0.707-1.4143 1.4143-1.4143-1.4143-0.70699 0.707 1.4143 1.4143-1.4143 1.4141 0.70699 0.707 1.4143-1.4141 1.4142 1.4142 0.707-0.70699-1.4142-1.4142z"
         color="#eff0f1"
         fill="currentColor"
         id="path162" />
    </g>
  </g>
  <g
     id="g175"
     inkscape:label="#g175">
    <rect
       y="70"
       x="37.272999"
       id="rect167"
       style="opacity:0;stroke-width:1.99993753;paint-order:fill markers stroke"
       height="31.999001"
       width="31.999001" />
    <rect
       transform="rotate(90)"
       x="74.363503"
       y="-64.908501"
       width="23.271999"
       height="23.271999"
       id="rect169"
       style="color:#dddddd;fill:none;stroke-width:0.99996877" />
    <path
       d="m 50.27623,75.99254 v 1.999938 h -3.999875 v 16.571118 c 0,0.791393 0.624388,1.428523 1.399956,1.428523 h 11.19965 c 0.775569,0 1.399956,-0.63713 1.399956,-1.428523 V 77.992478 H 56.276042 V 75.99254 Z"
       id="path171"
       inkscape:connector-curvature="0"
       style="fill:#000000;stroke-width:0.99996877;fill-opacity:1" />
  </g>
  <g
     style="stroke-width:0.6875"
     transform="matrix(1.4545,0,0,1.4545,57,117)"
     id="battery-ups">
    <rect
       y="0"
       id="rect177"
       style="opacity:0;stroke-width:1.375;paint-order:fill markers stroke"
       height="22"
       width="22"
       x="35" />
    <g
       style="stroke-width:0.6875;enable-background:new"
       id="g183"
       transform="translate(-227,394)">
      <rect
         style="color:#dddddd;fill:none"
         id="rect179"
         height="16"
         width="16"
         y="-281"
         x="-391"
         transform="rotate(90)" />
      <path
         style="fill:#4caf50"
         inkscape:connector-curvature="0"
         id="path181"
         d="m 270.94,-389.88 v 1.375 h -2.75 v 11.393 c 0,0.5441 0.42928,0.98214 0.9625,0.98214 h 7.7 c 0.53322,0 0.9625,-0.43804 0.9625,-0.98214 v -11.393 h -2.75 v -1.375 z m 2.0625,4.125 v 2.75 h 2.75 l -2.75,4.8125 v -2.75 h -2.75 z" />
    </g>
  </g>
  <g
     id="g194"
     inkscape:label="#g194">
    <rect
       y="70"
       id="rect186"
       style="opacity:0;stroke-width:1.99993753;paint-order:fill markers stroke"
       height="31.999001"
       width="31.999001"
       x="72.995003" />
    <rect
       transform="rotate(90)"
       x="74.363503"
       y="-100.6305"
       width="23.271999"
       height="23.271999"
       id="rect188"
       style="color:#dddddd;fill:none;stroke-width:0.99996877" />
    <path
       d="m 81.998355,83.075955 v 11.49055 c 0,0.795728 0.624388,1.436319 1.399956,1.436319 h 11.19965 c 0.775569,0 1.399956,-0.640591 1.399956,-1.436319 V 81.003293 Z"
       id="path190"
       inkscape:connector-curvature="0"
       style="fill:#000000;stroke-width:0.99996877;fill-opacity:1" />
  </g>
  <g
     id="g204"
     inkscape:label="#g204">
    <rect
       y="70"
       id="rect196"
       style="opacity:0;stroke-width:1.99993753;paint-order:fill markers stroke"
       height="31.999001"
       width="31.999001"
       x="107.995" />
    <rect
       transform="rotate(90)"
       x="74.363503"
       y="-135.63049"
       width="23.271999"
       height="23.271999"
       id="rect198"
       style="color:#dddddd;fill:none;stroke-width:0.99996877" />
    <path
       d="m 116.99835,83.00323 v 11.563275 c 0,0.795728 0.62439,1.436319 1.39996,1.436319 h 11.19965 c 0.77557,0 1.39996,-0.640591 1.39996,-1.436319 V 83.00323 Z"
       id="path200"
       inkscape:connector-curvature="0"
       style="fill:#000000;stroke-width:0.99996877;fill-opacity:1" />
  </g>
  <g
     id="g214"
     inkscape:label="#g214">
    <rect
       y="70"
       id="rect206"
       style="opacity:0;stroke-width:1.99993753;paint-order:fill markers stroke"
       height="31.999001"
       width="31.999001"
       x="142.9955" />
    <rect
       transform="rotate(90)"
       x="74.363503"
       y="-170.631"
       width="23.271999"
       height="23.271999"
       id="rect208"
       style="color:#dddddd;fill:none;stroke-width:0.99996877" />
    <path
       d="m 151.99885,85.9995 v 8.563369 c 0,0.795728 0.62439,1.436319 1.39996,1.436319 h 11.19965 c 0.77557,0 1.39996,-0.640591 1.39996,-1.436319 V 83.999563 Z"
       id="path210"
       inkscape:connector-curvature="0"
       style="fill:#000000;stroke-width:0.99996877;fill-opacity:1" />
  </g>
  <g
     id="g224"
     inkscape:label="#g224">
    <rect
       y="70"
       id="rect216"
       style="opacity:0;stroke-width:1.99993753;paint-order:fill markers stroke"
       height="31.999001"
       width="31.999001"
       x="177.995" />
    <rect
       transform="rotate(90)"
       x="74.363503"
       y="-205.63049"
       width="23.271999"
       height="23.271999"
       id="rect218"
       style="color:#dddddd;fill:none;stroke-width:0.99996877" />
    <path
       d="m 186.99835,85.9995 v 8.563369 c 0,0.795728 0.62439,1.436319 1.39996,1.436319 h 11.19965 c 0.77557,0 1.39996,-0.640591 1.39996,-1.436319 V 85.9995 Z"
       id="path220"
       inkscape:connector-curvature="0"
       style="fill:#000000;stroke-width:0.99996877;fill-opacity:1" />
  </g>
  <g
     id="g245">
    <rect
       y="70"
       id="rect226"
       style="opacity:0;stroke-width:1.99993753;paint-order:fill markers stroke"
       height="31.999001"
       width="31.999001"
       x="212.995" />
    <rect
       transform="rotate(90)"
       x="74.363503"
       y="-240.63049"
       width="23.271999"
       height="23.271999"
       id="rect228"
       style="color:#dddddd;fill:none;stroke-width:0.99996877" />
    <path
       d="m 221.99835,88.00671 v 6.563431 c 0,0.795728 0.62439,1.436319 1.39996,1.436319 h 11.19965 c 0.77557,0 1.39996,-0.640591 1.39996,-1.436319 v -8.563368 z"
       id="path230"
       inkscape:connector-curvature="0"
       style="fill:#000000;fill-opacity:1;stroke-width:0.99996877" />
  </g>
  <g
     id="g244"
     inkscape:label="#g244">
    <rect
       y="70"
       id="rect236"
       style="opacity:0;stroke-width:1.99993753;paint-order:fill markers stroke"
       height="31.999001"
       width="31.999001"
       x="249" />
    <rect
       transform="rotate(90)"
       x="74.363503"
       y="-276.6355"
       width="23.271999"
       height="23.271999"
       id="rect238"
       style="color:#dddddd;fill:none;stroke-width:0.99996877" />
    <path
       d="m 258.00335,88.00671 v 6.563431 c 0,0.795728 0.62439,1.436319 1.39996,1.436319 h 11.19965 c 0.77557,0 1.39996,-0.640591 1.39996,-1.436319 V 88.00671 Z"
       id="path240"
       inkscape:connector-curvature="0"
       style="fill:#000000;stroke-width:0.99996877;fill-opacity:1" />
  </g>
  <g
     id="g254">
    <rect
       y="70"
       id="rect246"
       style="opacity:0;stroke-width:1.99993753;paint-order:fill markers stroke"
       height="31.999001"
       width="31.999001"
       x="284" />
    <rect
       transform="rotate(90)"
       x="74.363503"
       y="-311.6355"
       width="23.271999"
       height="23.271999"
       id="rect248"
       style="color:#dddddd;fill:none;stroke-width:0.99996877" />
    <path
       d="m 293.00335,92.006585 v 2.563556 c 0,0.795728 0.62439,1.436319 1.39996,1.436319 h 11.19965 c 0.77557,0 1.39996,-0.640591 1.39996,-1.436319 v -4.563494 z"
       id="path250"
       inkscape:connector-curvature="0"
       style="fill:#000000;stroke-width:0.99996877;fill-opacity:1" />
  </g>
  <g
     style="stroke-width:0.6875"
     id="g264"
     transform="matrix(1.4545,0,0,1.4545,173.55,70)">
    <rect
       y="0"
       id="rect256"
       style="opacity:0;stroke-width:1.375;paint-order:fill markers stroke"
       height="22"
       width="22"
       x="100" />
    <g
       style="stroke-width:0.6875;enable-background:new"
       id="g262"
       transform="translate(-162,394)">
      <rect
         style="color:#dddddd;fill:none"
         id="rect258"
         height="16"
         width="16"
         y="-281"
         x="-391"
         transform="rotate(90)" />
      <path
         style="fill:#f44336"
         inkscape:connector-curvature="0"
         id="path260"
         d="m 268.19,-378.87 v 1.7625 c 0,0.54708 0.42928,0.9875 0.9625,0.9875 h 7.7 c 0.53322,0 0.9625,-0.44042 0.9625,-0.9875 v -1.7625 z" />
    </g>
  </g>
  <g
     style="stroke-width:0.6875"
     id="g274"
     transform="matrix(1.4545,0,0,1.4545,391,70)">
    <rect
       y="0"
       x="0"
       id="rect266"
       style="opacity:0;stroke-width:1.375;paint-order:fill markers stroke"
       height="22"
       width="22" />
    <g
       style="stroke-width:0.6875;enable-background:new"
       id="g272"
       transform="translate(-262,394)">
      <rect
         style="color:#dddddd;fill:none"
         id="rect268"
         height="16"
         width="16"
         y="-281"
         x="-391"
         transform="rotate(90)" />
      <path
         style="opacity:0.5;fill:#f44336"
         inkscape:connector-curvature="0"
         id="path270"
         d="m 404,76 v 2 h -4 v 16.572 c 0,0.79142 0.6248,1.4277 1.4004,1.4277 h 11.199 c 0.77559,0 1.4004,-0.63632 1.4004,-1.4277 V 78 h -4 v -2 z"
         transform="matrix(0.6875,0,0,0.6875,-6.8123,-442.12)" />
    </g>
  </g>
  <g
     style="stroke-width:0.6875"
     id="g284"
     transform="matrix(1.4545,0,0,1.4545,209.55,70)">
    <rect
       y="0"
       id="rect276"
       style="opacity:0;stroke-width:1.375;paint-order:fill markers stroke"
       height="22"
       width="22"
       x="100" />
    <g
       style="stroke-width:0.6875;enable-background:new"
       id="g282"
       transform="translate(-162,394)">
      <rect
         style="color:#dddddd;fill:none"
         id="rect278"
         height="16"
         width="16"
         y="-281"
         x="-391"
         transform="rotate(90)" />
      <path
         style="fill:#f44336"
         inkscape:connector-curvature="0"
         id="path280"
         d="m 268.19,-377.5 v 0.3875 c 0,0.54708 0.42928,0.9875 0.9625,0.9875 h 7.7 c 0.53322,0 0.9625,-0.44042 0.9625,-0.9875 v -1.7625 z" />
    </g>
  </g>
  <g
     id="Battery"
     inkscape:label="#Battery">
    <rect
       y="70"
       x="1.9091001"
       id="rect286"
       style="opacity:0;stroke-width:1.99993753;paint-order:fill markers stroke"
       height="31.999001"
       width="31.999001" />
    <rect
       transform="rotate(90)"
       x="74.363503"
       y="-29.5446"
       width="23.271999"
       height="23.271999"
       id="rect288"
       style="color:#dddddd;fill:none;stroke-width:0.99996877" />
    <path
       d="m 14.91233,75.99254 v 1.999938 h -3.999875 v 16.571118 c 0,0.791393 0.624388,1.428523 1.399956,1.428523 h 11.19965 c 0.775569,0 1.399956,-0.63713 1.399956,-1.428523 V 77.992478 H 20.912142 V 75.99254 Z"
       id="path290"
       inkscape:connector-curvature="0"
       style="opacity:0.5;fill:#000000;stroke-width:0.99996877;fill-opacity:1" />
  </g>
  <g
     id="AcAdapter">
    <rect
       y="115"
       x="11.909"
       id="rect295"
       style="opacity:0;stroke-width:1.99993753;paint-order:fill markers stroke"
       height="31.999001"
       width="31.999001" />
    <rect
       transform="rotate(90)"
       x="119.3635"
       y="-39.544498"
       width="23.271999"
       height="23.271999"
       id="rect297"
       style="color:#dddddd;fill:none;stroke-width:0.99996877" />
    <path
       d="m 24.91223,120.99254 v 1.99994 h -3.999875 v 16.57112 c 0,0.79139 0.624388,1.42852 1.399956,1.42852 h 11.19965 c 0.775569,0 1.399956,-0.63713 1.399956,-1.42852 v -16.57112 h -3.999875 v -1.99994 z"
       id="path299"
       inkscape:connector-curvature="0"
       style="fill:#000000;stroke-width:0.99996877;fill-opacity:1" />
    <path
       d="m 11.9,147 v -32 h 32 v 32 z"
       id="path307"
       inkscape:connector-curvature="0"
       style="fill:none" />
    <path
       d="m 24.9,131 a 3,3 0 0 0 2,2.826 V 135 h 2 v -1.176 a 3,3 0 0 0 2,-2.824 h -1 v -2 h -1 v 2 h -2 v -2 h -1 v 2 z"
       id="path309"
       style="fill:#ffffff"
       inkscape:connector-curvature="0" />
  </g>
  <g
     id="g320">
    <rect
       width="31.999001"
       height="31.999001"
       style="opacity:0;stroke-width:1.99993753;paint-order:fill markers stroke"
       id="rect312"
       x="57.202"
       y="116" />
    <rect
       style="color:#dddddd;fill:none;stroke-width:0.99996877"
       id="rect314"
       height="23.271999"
       width="23.271999"
       y="-84.837502"
       x="120.3635"
       transform="rotate(90)" />
    <path
       style="fill:#000000;stroke-width:0.99996877;fill-opacity:1"
       inkscape:connector-curvature="0"
       id="path316"
       d="m 70.20523,121.99254 v 1.99994 h -3.999875 v 16.57112 c 0,0.79139 0.624388,1.42852 1.399956,1.42852 h 11.19965 c 0.775569,0 1.399956,-0.63713 1.399956,-1.42852 v -16.57112 h -3.999875 v -1.99994 z" />
    <path
       d="m 57.206,116 h 32 v 32 h -32 z"
       id="path322"
       inkscape:connector-curvature="0"
       style="fill:none" />
    <g
       transform="translate(-61.334,-312.5)"
       id="g328">
      <rect
         x="136.24001"
         y="445.5"
         width="10"
         height="10"
         rx="5"
         ry="5"
         id="rect324"
         style="fill:#f44336" />
      <path
         class="ColorScheme-Background"
         d="m 144.07,448.38 -0.70699,-0.707 -2.1213,2.1213 -2.1213,-2.1213 -0.70711,0.70711 2.1214,2.1212 -2.1214,2.1214 0.70711,0.70711 2.1213,-2.1216 2.1213,2.1216 0.70711,-0.70711 -2.1214,-2.1214 z"
         id="path326"
         inkscape:connector-curvature="0"
         style="color:#eff0f1;fill:#ffffff" />
    </g>
  </g>
</svg>
