<?xml version="1.0" encoding="UTF-8" standalone="no"?>
<svg
   xmlns:dc="http://purl.org/dc/elements/1.1/"
   xmlns:cc="http://creativecommons.org/ns#"
   xmlns:rdf="http://www.w3.org/1999/02/22-rdf-syntax-ns#"
   xmlns:svg="http://www.w3.org/2000/svg"
   xmlns="http://www.w3.org/2000/svg"
   xmlns:sodipodi="http://sodipodi.sourceforge.net/DTD/sodipodi-0.dtd"
   xmlns:inkscape="http://www.inkscape.org/namespaces/inkscape"
   id="svg7384"
   width="22"
   height="22"
   version="1.1"
   style="enable-background:new"
   sodipodi:docname="go.svg"
   inkscape:version="0.92.3 (2405546, 2018-03-11)">
  <metadata
     id="metadata22">
    <rdf:RDF>
      <cc:Work
         rdf:about="">
        <dc:format>image/svg+xml</dc:format>
        <dc:type
           rdf:resource="http://purl.org/dc/dcmitype/StillImage" />
      </cc:Work>
    </rdf:RDF>
  </metadata>
  <sodipodi:namedview
     pagecolor="#ffffff"
     bordercolor="#666666"
     borderopacity="1"
     objecttolerance="10"
     gridtolerance="10"
     guidetolerance="10"
     inkscape:pageopacity="0"
     inkscape:pageshadow="2"
     inkscape:window-width="1920"
     inkscape:window-height="1006"
     id="namedview20"
     showgrid="false"
     inkscape:zoom="10.727273"
     inkscape:cx="11"
     inkscape:cy="11"
     inkscape:window-x="0"
     inkscape:window-y="0"
     inkscape:window-maximized="1"
     inkscape:current-layer="svg7384" />
  <defs
     id="defs7386">
    <style
       id="current-color-scheme"
       type="text/css">
   .ColorScheme-Text { color:#565656; } .ColorScheme-Highlight { color:#5294e2; } .ColorScheme-ButtonBackground { color:#565656; }
  </style>
  </defs>
  <g
     id="go-home"
     inkscape:label="#go-home">
    <path
       id="rect4138"
       d="M 0,0 H 22 V 22.000003 H 0 Z"
       style="opacity:0;fill:currentColor;fill-opacity:0.3254902;fill-rule:nonzero;stroke:none;stroke-width:1;stroke-linecap:round;stroke-linejoin:round;stroke-miterlimit:4;stroke-dasharray:none;stroke-dashoffset:0;stroke-opacity:1"
       inkscape:connector-curvature="0" />
    <path
       id="path16259-2"
       class="ColorScheme-Text"
       d="m 3,11 h 2 v 8 h 5 v -4 h 2 v 4 h 5 v -8 h 2 L 11,3 Z"
       style="color:#565656;opacity:1;fill:#000000;fill-opacity:1;stroke:none"
       inkscape:connector-curvature="0" />
  </g>
  <g
     id="go-up"
     inkscape:label="#go-up">
    <path
       id="path4198"
       d="M 24,0 V 22 H 46 V 0 Z"
       style="opacity:0;fill:currentColor;fill-opacity:0.3254902;fill-rule:nonzero;stroke:none;stroke-width:1;stroke-linecap:round;stroke-linejoin:round;stroke-miterlimit:4;stroke-dasharray:none;stroke-dashoffset:0;stroke-opacity:1"
       inkscape:connector-curvature="0" />
    <path
       id="rect4216"
       class="ColorScheme-Text"
       d="m 26.5,11.026373 2.11644,2.123305 4.36736,-4.379438 v 10.229758 h 2.99342 V 8.735079 L 40.38161,13.149678 42.5,11.026373 34.5,3 Z"
       style="color:#565656;opacity:1;fill:#000000;fill-opacity:1;stroke:none;stroke-opacity:1"
       inkscape:connector-curvature="0" />
  </g>
  <g
     id="go-down"
     inkscape:label="#go-down">
    <path
       id="path4233"
       d="M 48,22 V 0 h 22 v 22 z"
       style="opacity:0;fill:currentColor;fill-opacity:0.3254902;fill-rule:nonzero;stroke:none;stroke-width:1;stroke-linecap:round;stroke-linejoin:round;stroke-miterlimit:4;stroke-dasharray:none;stroke-dashoffset:0;stroke-opacity:1"
       inkscape:connector-curvature="0" />
    <path
       id="path4235"
       class="ColorScheme-Text"
       d="M 50.5,10.973627 52.61644,8.850322 56.9838,13.22976 V 3.000002 h 2.99342 V 13.264921 L 64.38161,8.850322 66.5,10.973627 58.5,19 Z"
       style="color:#565656;opacity:1;fill:#000000;fill-opacity:1;stroke:none;stroke-opacity:1"
       inkscape:connector-curvature="0" />
  </g>
  <g
     id="go-previous"
     transform="translate(-465.0004,105.00336)">
    <path
       id="path4239"
       d="m 537.0004,-105.00336 22,0 0,22 -22,0 z"
       style="opacity:0;fill:currentColor;fill-opacity:0.3254902;fill-rule:nonzero;stroke:none;stroke-width:1;stroke-linecap:round;stroke-linejoin:round;stroke-miterlimit:4;stroke-dasharray:none;stroke-dashoffset:0;stroke-opacity:1" />
    <path
       id="path4241"
       class="ColorScheme-Text"
       d="m 548.02677,-102.50336 2.12331,2.11644 -4.37944,4.36736 10.22976,0 0,2.99342 -10.26492,0 4.4146,4.40439 -2.12331,2.11839 -8.02637,-8 z"
       style="opacity:1;fill:currentColor;fill-opacity:1;stroke:none;stroke-opacity:1" />
  </g>
  <g
     id="go-next"
     transform="matrix(-1,0,0,1,655.0004,105.00336)">
    <path
       id="path4253"
       d="m 537.0004,-105.00336 22,0 0,22 -22,0 z"
       style="opacity:0;fill:currentColor;fill-opacity:0.3254902;fill-rule:nonzero;stroke:none;stroke-width:1;stroke-linecap:round;stroke-linejoin:round;stroke-miterlimit:4;stroke-dasharray:none;stroke-dashoffset:0;stroke-opacity:1" />
    <path
       id="path4255"
       class="ColorScheme-Text"
       d="m 548.02677,-102.50336 2.12331,2.11644 -4.37944,4.36736 10.22976,0 0,2.99342 -10.26492,0 4.4146,4.40439 -2.12331,2.11839 -8.02637,-8 z"
       style="opacity:1;fill:currentColor;fill-opacity:1;stroke:none;stroke-opacity:1" />
  </g>
</svg>
