<?xml version="1.0" encoding="UTF-8" standalone="no"?>
<svg
   xmlns:dc="http://purl.org/dc/elements/1.1/"
   xmlns:cc="http://creativecommons.org/ns#"
   xmlns:rdf="http://www.w3.org/1999/02/22-rdf-syntax-ns#"
   xmlns:svg="http://www.w3.org/2000/svg"
   xmlns="http://www.w3.org/2000/svg"
   xmlns:sodipodi="http://sodipodi.sourceforge.net/DTD/sodipodi-0.dtd"
   xmlns:inkscape="http://www.inkscape.org/namespaces/inkscape"
   id="svg2817"
   width="22"
   height="22"
   version="1"
   sodipodi:docname="kate.svg"
   inkscape:version="0.92.3 (2405546, 2018-03-11)">
  <metadata
     id="metadata13">
    <rdf:RDF>
      <cc:Work
         rdf:about="">
        <dc:format>image/svg+xml</dc:format>
        <dc:type
           rdf:resource="http://purl.org/dc/dcmitype/StillImage" />
      </cc:Work>
    </rdf:RDF>
  </metadata>
  <sodipodi:namedview
     pagecolor="#ffffff"
     bordercolor="#666666"
     borderopacity="1"
     objecttolerance="10"
     gridtolerance="10"
     guidetolerance="10"
     inkscape:pageopacity="0"
     inkscape:pageshadow="2"
     inkscape:window-width="1920"
     inkscape:window-height="1006"
     id="namedview11"
     showgrid="false"
     inkscape:zoom="7.4519915"
     inkscape:cx="-6.3348587"
     inkscape:cy="-2.1184702"
     inkscape:window-x="0"
     inkscape:window-y="0"
     inkscape:window-maximized="1"
     inkscape:current-layer="svg2817" />
  <defs
     id="defs12">
    <style
       id="current-color-scheme"
       type="text/css">
   .ColorScheme-Text { color:#565656; } .ColorScheme-Highlight { color:#5294e2; } .ColorScheme-ButtonBackground { color:#565656; }
  </style>
  </defs>
  <g
     id="16-16-kate"
     inkscape:label="#16-16-kate">
    <g
       style="color:#bebebe;display:inline;visibility:visible;fill:none;stroke:none;stroke-width:1.78124988;marker:none"
       id="g5063"
       inkscape:label="dialog-error"
       transform="translate(-62.84381,-515.72627)">
      <rect
         width="16"
         height="16"
         x="40"
         y="518"
         id="rect5066"
         style="color:#bebebe;display:inline;overflow:visible;visibility:visible;fill:none;stroke:none;stroke-width:1;marker:none;enable-background:new" />
    </g>
    <path
       inkscape:connector-curvature="0"
       d="m -21.85131,14.161229 v 3.12 h 3.12 l 7.88,-7.88 -3.12,-3.12 z m 13.76,-7.51 c 0.33,-0.33 0.33,-0.85 0,-1.18 l -1.95,-1.95 c -0.33,-0.33 -0.85,-0.33 -1.18,0 l -1.63,1.64 3.12,3.12 z"
       id="path5071"
       sodipodi:nodetypes="cccccccsscccc"
       style="fill:#000000;fill-opacity:1;stroke:none" />
  </g>
  <g
     id="22-22-kate"
     inkscape:label="#22-22-kate">
    <rect
       id="rect4552"
       width="22"
       height="22"
       x="0"
       y="0"
       style="opacity:0.00100002;fill:currentColor;fill-opacity:1;stroke:none;stroke-width:1;stroke-linecap:butt;stroke-linejoin:miter;stroke-miterlimit:4;stroke-dasharray:2, 1;stroke-dashoffset:0;stroke-opacity:1" />
    <g
       transform="translate(-37,-515)"
       inkscape:label="dialog-error"
       id="g834"
       style="color:#bebebe;display:inline;visibility:visible;fill:none;stroke:none;stroke-width:1.78124988;marker:none">
      <rect
         style="color:#bebebe;display:inline;overflow:visible;visibility:visible;fill:none;stroke:none;stroke-width:1;marker:none;enable-background:new"
         id="rect832"
         y="518"
         x="40"
         height="16"
         width="16" />
    </g>
    <path
       style="fill:#000000;fill-opacity:1;stroke:none"
       sodipodi:nodetypes="cccccccsscccc"
       id="path836"
       d="m 3.9925,14.8875 v 3.12 h 3.12 l 7.88,-7.88 -3.12,-3.12 z m 13.76,-7.51 c 0.33,-0.33 0.33,-0.85 0,-1.18 l -1.95,-1.95 c -0.33,-0.33 -0.85,-0.33 -1.18,0 l -1.63,1.64 3.12,3.12 z"
       inkscape:connector-curvature="0" />
  </g>
</svg>
