<?xml version="1.0" encoding="UTF-8" standalone="no"?>
<svg
   xmlns:dc="http://purl.org/dc/elements/1.1/"
   xmlns:cc="http://creativecommons.org/ns#"
   xmlns:rdf="http://www.w3.org/1999/02/22-rdf-syntax-ns#"
   xmlns:svg="http://www.w3.org/2000/svg"
   xmlns="http://www.w3.org/2000/svg"
   xmlns:sodipodi="http://sodipodi.sourceforge.net/DTD/sodipodi-0.dtd"
   xmlns:inkscape="http://www.inkscape.org/namespaces/inkscape"
   id="svg"
   width="100%"
   height="100%"
   version="1.1"
   viewBox="0 0 22 22"
   sodipodi:docname="user.svg"
   inkscape:version="0.92.3 (2405546, 2018-03-11)">
  <metadata
     id="metadata29">
    <rdf:RDF>
      <cc:Work
         rdf:about="">
        <dc:format>image/svg+xml</dc:format>
        <dc:type
           rdf:resource="http://purl.org/dc/dcmitype/StillImage" />
      </cc:Work>
    </rdf:RDF>
  </metadata>
  <sodipodi:namedview
     pagecolor="#ffffff"
     bordercolor="#666666"
     borderopacity="1"
     objecttolerance="10"
     gridtolerance="10"
     guidetolerance="10"
     inkscape:pageopacity="0"
     inkscape:pageshadow="2"
     inkscape:window-width="1920"
     inkscape:window-height="1006"
     id="namedview27"
     showgrid="false"
     inkscape:zoom="10.727273"
     inkscape:cx="11"
     inkscape:cy="11"
     inkscape:window-x="0"
     inkscape:window-y="0"
     inkscape:window-maximized="1"
     inkscape:current-layer="svg" />
  <defs
     id="defs81">
    <style
       id="current-color-scheme"
       type="text/css">
   .ColorScheme-Text { color:#565656; } .ColorScheme-Highlight { color:#5294e2; } .ColorScheme-ButtonBackground { color:#565656; }
  </style>
  </defs>
  <g
     id="user-busy"
     transform="translate(199,-1)">
    <rect
       id="rect3924"
       class="ColorScheme-Text"
       width="22"
       height="22"
       x="1"
       y="1"
       style="fill:currentColor;fill-opacity:0;stroke:none" />
    <path
       id="rect4109-0-9"
       class="ColorScheme-Text"
       d="m 12,4 c -1.662,0 -3,1.338 -3,3 0,1.662 1.338,3 3,3 1.662,0 3,-1.338 3,-3 0,-1.662 -1.338,-3 -3,-3 z m 0,1 c 1.108,0 2,0.892 2,2 0,1.108 -0.892,2 -2,2 -1.108,0 -2,-0.892 -2,-2 0,-1.108 0.892,-2 2,-2 z m 0,7 c -2.77,0 -5,0.891984 -5,2 l 0,5 0,1 1.2011733,0 7.5976537,0 L 17,20 l 0,-1 0,-5 c 0,-1.108016 -2.23,-2 -5,-2 z"
       style="fill:currentColor;fill-opacity:1;opacity:1" />
  </g>
  <g
     id="user-away-extended"
     transform="translate(159,-1)">
    <rect
       id="rect3907"
       class="ColorScheme-Text"
       width="22"
       height="22"
       x="1"
       y="1"
       style="fill:currentColor;fill-opacity:0;stroke:none" />
    <path
       id="path4159"
       d="m 12,4 c -1.66199,0 -3,1.338 -3,3 0,1.662 1.33801,3 3,3 1.662,0 3,-1.338 3,-3 0,-1.662 -1.338,-3 -3,-3 z"
       style="fill:#ebb557;fill-opacity:1;stroke:none" />
    <path
       id="path4157"
       d="M 171 11 C 168.23001 11 166 11.89198 166 13 L 166 18 L 166 19 L 167.1875 19 L 174.8125 19 L 176 19 L 176 18 L 176 13 C 176 11.89198 173.77 11 171 11 z M 168.65625 14.34375 L 173.34375 14.34375 L 173.34375 15.65625 L 168.65625 15.65625 L 168.65625 14.34375 z"
       transform="translate(-159,1)"
       style="fill:#ebb557;fill-opacity:1;stroke:none" />
  </g>
  <g
     id="user-away"
     transform="translate(119,-1)">
    <rect
       id="rect3873"
       class="ColorScheme-Text"
       width="22"
       height="22"
       x="1"
       y="1"
       style="fill:currentColor;fill-opacity:0;stroke:none" />
    <path
       id="rect4109-4-9"
       d="m 12,4 c -1.662,0 -3,1.338 -3,3 0,1.662 1.338,3 3,3 1.662,0 3,-1.338 3,-3 0,-1.662 -1.338,-3 -3,-3 z m 0,8 c -2.77,0 -5,0.89198 -5,2 l 0,5 0,1 1.2011733,0 7.5976597,0 L 17,20 l 0,-1 0,-5 c 0,-1.10802 -2.23,-2 -5,-2 z"
       style="fill:#ebb557;fill-opacity:1;stroke:none" />
  </g>
  <g
     id="user-offline"
     transform="translate(79,-1)">
    <rect
       id="rect3009"
       class="ColorScheme-Text"
       width="22"
       height="22"
       x="1"
       y="1"
       style="fill:currentColor;fill-opacity:0;stroke:none" />
    <path
       id="rect4109-00-0"
       class="ColorScheme-Highlight"
       d="m 12,4 c -1.662,0 -3,1.338 -3,3 0,1.662 1.338,3 3,3 1.662,0 3,-1.338 3,-3 0,-1.662 -1.338,-3 -3,-3 z m 0,8 c -2.77,0 -5,0.89198 -5,2 l 0,5 0,1 1.20117,0 7.59766,0 1.20117,0 0,-1 0,-5 c 0,-1.10802 -2.23,-2 -5,-2 z"
       style="fill:currentColor;fill-opacity:1;stroke:none" />
  </g>
  <g
     id="user-invisible"
     inkscape:label="#user-invisible">
    <rect
       id="rect3855"
       class="ColorScheme-Text"
       width="22"
       height="22"
       x="40"
       y="0"
       style="color:#565656;fill:currentColor;fill-opacity:0;stroke:none" />
    <path
       id="rect4109-9-3"
       class="ColorScheme-Text"
       d="m 51,3 c -1.662,0 -3,1.338 -3,3 0,1.662 1.338,3 3,3 1.662,0 3,-1.338 3,-3 0,-1.662 -1.338,-3 -3,-3 z m 0,8 c -2.77,0 -5,0.89198 -5,2 v 5 1 H 47.20117 54.79883 56 v -1 -5 c 0,-1.10802 -2.23,-2 -5,-2 z"
       style="color:#565656;fill:#000000;fill-opacity:0.30000001;stroke:none"
       inkscape:connector-curvature="0" />
  </g>
  <g
     id="user-online"
     inkscape:label="#user-online">
    <rect
       id="rect3956"
       class="ColorScheme-Text"
       width="22"
       height="22"
       x="0"
       y="0"
       style="color:#565656;fill:currentColor;fill-opacity:0;stroke:none" />
    <path
       id="rect4109-6-8"
       class="ColorScheme-Text"
       d="M 11,3 C 9.338,3 8,4.338 8,6 8,7.662 9.338,9 11,9 12.662,9 14,7.662 14,6 14,4.338 12.662,3 11,3 Z m 0,8 c -2.77,0 -5,0.891984 -5,2 v 5 1 H 7.2011719 14.798828 16 v -1 -5 c 0,-1.108016 -2.23,-2 -5,-2 z"
       style="color:#565656;opacity:1;fill:#000000;fill-opacity:1"
       inkscape:connector-curvature="0" />
  </g>
  <g
     id="user-identity"
     transform="translate(-486.72644,-502.11926)">
    <rect
       id="rect7769"
       width="22"
       height="22"
       x="721.73"
       y="502.12"
       style="opacity:0.01000001;fill:#fdbc4b;fill-opacity:0.00392157;stroke:none" />
    <path
       id="rect4109-5"
       class="ColorScheme-Text"
       d="m 732.72644,505.11926 c -2.04554,0 -3.69232,1.64677 -3.69232,3.69232 0,2.04554 1.64678,3.69231 3.69232,3.69231 2.04553,0 3.69231,-1.64677 3.69231,-3.69231 0,-2.04555 -1.64678,-3.69232 -3.69231,-3.69232 z m 0,8.61539 c -3.40927,0 -6.15386,2.74461 -6.15386,6.15386 l 0,1.23077 12.30771,0 0,-1.23077 c 0,-3.40925 -2.74459,-6.15386 -6.15385,-6.15386 z"
       style="fill:currentColor;fill-opacity:1;opacity:1" />
  </g>
</svg>
