<?xml version="1.0" encoding="UTF-8" standalone="no"?>
<svg
   xmlns:dc="http://purl.org/dc/elements/1.1/"
   xmlns:cc="http://creativecommons.org/ns#"
   xmlns:rdf="http://www.w3.org/1999/02/22-rdf-syntax-ns#"
   xmlns:svg="http://www.w3.org/2000/svg"
   xmlns="http://www.w3.org/2000/svg"
   xmlns:sodipodi="http://sodipodi.sourceforge.net/DTD/sodipodi-0.dtd"
   xmlns:inkscape="http://www.inkscape.org/namespaces/inkscape"
   width="22"
   height="22"
   enable-background="new"
   version="1.1"
   id="svg25"
   sodipodi:docname="zoom.svg"
   inkscape:version="0.92.3 (2405546, 2018-03-11)">
  <metadata
     id="metadata29">
    <rdf:RDF>
      <cc:Work
         rdf:about="">
        <dc:format>image/svg+xml</dc:format>
        <dc:type
           rdf:resource="http://purl.org/dc/dcmitype/StillImage" />
      </cc:Work>
    </rdf:RDF>
  </metadata>
  <sodipodi:namedview
     pagecolor="#ffffff"
     bordercolor="#666666"
     borderopacity="1"
     objecttolerance="10"
     gridtolerance="10"
     guidetolerance="10"
     inkscape:pageopacity="0"
     inkscape:pageshadow="2"
     inkscape:window-width="1920"
     inkscape:window-height="1006"
     id="namedview27"
     showgrid="false"
     inkscape:zoom="10.727273"
     inkscape:cx="11"
     inkscape:cy="-0.18644068"
     inkscape:window-x="0"
     inkscape:window-y="0"
     inkscape:window-maximized="1"
     inkscape:current-layer="svg25" />
  <defs
     id="defs3">
    <style
       id="current-color-scheme"
       type="text/css">.ColorScheme-Text { color:#565656; } .ColorScheme-Highlight { color:#5294e2; } .ColorScheme-ButtonBackground { color:#565656; }</style>
  </defs>
  <g
     id="zoom-fit-width"
     inkscape:label="#zoom-fit-width">
    <rect
       x="0"
       y="0.003"
       width="22"
       height="22"
       id="rect5"
       style="opacity:0;stroke-width:1px" />
    <path
       class="ColorScheme-Text"
       d="m 8,8 -5,3 5,3 v -2 h 6 v 2 l 5,-3 -5,-3 v 2 H 8 Z"
       id="path7"
       inkscape:connector-curvature="0"
       style="color:#565656;fill:#000000;fill-opacity:1" />
  </g>
  <g
     id="zoom-fit-height"
     inkscape:label="#zoom-fit-height">
    <rect
       transform="rotate(90)"
       x="2.9389686e-15"
       y="-47.997002"
       width="22"
       height="22"
       id="rect10"
       style="opacity:0;stroke-width:1px" />
    <path
       class="ColorScheme-Text"
       d="M 40,8 37,3 34,8 h 2 v 6 h -2 l 3,5 3,-5 H 38 V 8 Z"
       id="path12"
       inkscape:connector-curvature="0"
       style="color:#565656;fill:#070000;fill-opacity:1" />
  </g>
  <g
     id="16-16-zoom-fit-width"
     inkscape:label="#16-16-zoom-fit-width">
    <rect
       x="3"
       y="26.003"
       width="16"
       height="16"
       id="rect15"
       style="opacity:0;stroke-width:1px" />
    <path
       class="ColorScheme-Text"
       d="m 8,31 -4,3 4,3 v -2 h 6 v 2 l 4,-3 -4,-3 v 2 H 8 Z"
       id="path17"
       inkscape:connector-curvature="0"
       style="color:#565656;fill:#000000;fill-opacity:1" />
  </g>
  <g
     id="16-16-zoom-fit-height">
    <rect
       transform="rotate(90)"
       x="26"
       y="-44.997002"
       width="16"
       height="16"
       id="rect20"
       style="opacity:0;stroke-width:1px" />
    <path
       class="ColorScheme-Text"
       d="m 40,31 -3,-4 -3,4 h 2 v 6 h -2 l 3,4 3,-4 h -2 v -6 z"
       id="path22"
       inkscape:connector-curvature="0"
       style="color:#565656;fill:#000000;fill-opacity:1" />
  </g>
</svg>
